/Users/testvagrant/IdeaProjects/Java Code/javarevision/src/main/java/test/CoffeeTest.java
/Users/testvagrant/IdeaProjects/Java Code/javarevision/src/main/java/com/learning/anshul/ServiceCenter.java
/Users/testvagrant/IdeaProjects/Java Code/javarevision/src/main/java/com/learning/protectedMembersAccess/ChildInOtherPackage.java
/Users/testvagrant/IdeaProjects/Java Code/javarevision/src/main/java/com/learning/coredspm/leetcode/arrays/MaximumProductSubarray.java
/Users/testvagrant/IdeaProjects/Java Code/javarevision/src/main/java/com/learning/constructor/FooChild.java
/Users/testvagrant/IdeaProjects/Java Code/javarevision/src/main/java/com/learning/constructor/FooChild2.java
/Users/testvagrant/IdeaProjects/Java Code/javarevision/src/main/java/com/learning/coredspm/leetcode/strings/Subsequence.java
/Users/testvagrant/IdeaProjects/Java Code/javarevision/src/main/java/com/learning/javaInheritanceGarbageCollection/Child.java
/Users/testvagrant/IdeaProjects/Java Code/javarevision/src/main/java/test/StaticVsInstanceTest.java
/Users/testvagrant/IdeaProjects/Java Code/javarevision/src/main/java/com/learning/generics/Subclass.java
/Users/testvagrant/IdeaProjects/Java Code/javarevision/src/main/java/com/learning/coredspm/leetcode/arrays/IntersectionArray.java
/Users/testvagrant/IdeaProjects/Java Code/javarevision/src/main/java/com/learning/generics/TestNumberAccept.java
/Users/testvagrant/IdeaProjects/Java Code/javarevision/src/main/java/com/learning/coredspm/SlidingWindowLongestSubstringWithnonrepeatingCharacters.java
/Users/testvagrant/IdeaProjects/Java Code/javarevision/src/main/java/com/learning/collections/StreamsUse.java
/Users/testvagrant/IdeaProjects/Java Code/javarevision/src/main/java/com/learning/anshul/mockInterview/ArrayIndexProblem.java
/Users/testvagrant/IdeaProjects/Java Code/javarevision/src/main/java/com/learning/protectedMembersAccess/ProtectedUseOtherPackage.java
/Users/testvagrant/IdeaProjects/Java Code/javarevision/src/main/java/com/learning/collections/ArrayListUse.java
/Users/testvagrant/IdeaProjects/Java Code/javarevision/src/main/java/com/learning/coredspm/LongestNonRepetitiveSubstring.java
/Users/testvagrant/IdeaProjects/Java Code/javarevision/src/main/java/com/learning/constructor/Foo.java
/Users/testvagrant/IdeaProjects/Java Code/javarevision/src/main/java/com/learning/staticInstance/StaticVsInstance.java
/Users/testvagrant/IdeaProjects/Java Code/javarevision/src/main/java/com/learning/coredspm/leetcode/strings/Isomorphic.java
/Users/testvagrant/IdeaProjects/Java Code/javarevision/src/main/java/com/learning/literals/FloatingLiterals.java
/Users/testvagrant/IdeaProjects/Java Code/javarevision/src/main/java/com/learning/enhancedForLoop/EnhancedLoop.java
/Users/testvagrant/IdeaProjects/Java Code/javarevision/src/main/java/com/learning/coredspm/GFGSolutionLongestSubstrinNonrep.java
/Users/testvagrant/IdeaProjects/Java Code/javarevision/src/main/java/com/learning/codility/PassengerCarSolution.java
/Users/testvagrant/IdeaProjects/Java Code/javarevision/src/main/java/com/learning/anshul/mockInterview/NumbersLessThanHundred.java
/Users/testvagrant/IdeaProjects/Java Code/javarevision/src/main/java/com/learning/exceptionHandling/P1.java
/Users/testvagrant/IdeaProjects/Java Code/javarevision/src/main/java/com/learning/coredspm/leetcode/strings/Anagram.java
/Users/testvagrant/IdeaProjects/Java Code/javarevision/src/main/java/com/learning/literals/ByteAddToInt.java
/Users/testvagrant/IdeaProjects/Java Code/javarevision/src/main/java/com/learning/anshul/mockInterview/Trains.java
/Users/testvagrant/IdeaProjects/Java Code/javarevision/src/main/java/com/learning/lambdasAndStreams/SecondLargest.java
/Users/testvagrant/IdeaProjects/Java Code/javarevision/src/main/java/com/learning/coredspm/leetcode/arrays/SpiralMatrix.java
/Users/testvagrant/IdeaProjects/Java Code/javarevision/src/main/java/com/learning/javaInheritanceGarbageCollection/I3.java
/Users/testvagrant/IdeaProjects/Java Code/javarevision/src/main/java/com/learning/stringRelated/ImmutabilityString.java
/Users/testvagrant/IdeaProjects/Java Code/javarevision/src/main/java/com/learning/coredspm/leetcode/arrays/MaxProfit.java
/Users/testvagrant/IdeaProjects/Java Code/javarevision/src/main/java/com/learning/coredspm/SlidingWindow.java
/Users/testvagrant/IdeaProjects/Java Code/javarevision/src/main/java/com/learning/chapter2/Tenor.java
/Users/testvagrant/IdeaProjects/Java Code/javarevision/src/main/java/com/learning/coredspm/leetcode/arrays/SearchInsertPosition.java
/Users/testvagrant/IdeaProjects/Java Code/javarevision/src/main/java/com/learning/literals/CharacterLiterals.java
/Users/testvagrant/IdeaProjects/Java Code/javarevision/src/main/java/com/learning/generics/AcceptNumbers.java
/Users/testvagrant/IdeaProjects/Java Code/javarevision/src/main/java/com/learning/coredspm/leetcode/arrays/TwoSum.java
/Users/testvagrant/IdeaProjects/Java Code/javarevision/src/main/java/com/learning/abstractClasses/Concrete.java
/Users/testvagrant/IdeaProjects/Java Code/javarevision/src/main/java/com/learning/javaInheritanceGarbageCollection/ProtectedMemberUse.java
/Users/testvagrant/IdeaProjects/Java Code/javarevision/src/main/java/com/learning/lambdasAndStreams/LearnStreams.java
/Users/testvagrant/IdeaProjects/Java Code/javarevision/src/main/java/com/learning/exceptionHandling/Exception.java
/Users/testvagrant/IdeaProjects/Java Code/javarevision/src/main/java/com/learning/animalDog/Animal.java
/Users/testvagrant/IdeaProjects/Java Code/javarevision/src/main/java/com/learning/coredspm/leetcode/strings/PalindromeSentence.java
/Users/testvagrant/IdeaProjects/Java Code/javarevision/src/main/java/com/learning/coredspm/leetcode/arrays/MergeSortedArrays.java
/Users/testvagrant/IdeaProjects/Java Code/javarevision/src/main/java/com/learning/javaInheritanceGarbageCollection/GarbageCollectionRuntimeThread.java
/Users/testvagrant/IdeaProjects/Java Code/javarevision/src/main/java/com/learning/datesAndTime/ParseStringInAnyFormatToDate.java
/Users/testvagrant/IdeaProjects/Java Code/javarevision/src/main/java/com/learning/javaInheritanceGarbageCollection/Parent.java
/Users/testvagrant/IdeaProjects/Java Code/javarevision/src/main/java/com/learning/exceptionHandling/C1.java
/Users/testvagrant/IdeaProjects/Java Code/javarevision/src/main/java/com/learning/literals/IntegerUnderscoreLiterals.java
/Users/testvagrant/IdeaProjects/Java Code/javarevision/src/main/java/com/learning/enumerations/EnumInClass.java
/Users/testvagrant/IdeaProjects/Java Code/javarevision/src/main/java/com/learning/varargs/Varargs.java
/Users/testvagrant/IdeaProjects/Java Code/javarevision/src/main/java/com/learning/coredspm/leetcode/strings/LongestCommonPrefix.java
/Users/testvagrant/IdeaProjects/Java Code/javarevision/src/main/java/com/learning/functionalProgramming/MainType.java
/Users/testvagrant/IdeaProjects/Java Code/javarevision/src/main/java/com/learning/functionalProgramming/CustomFunctionalInterfaceLikePredicateConsumer.java
/Users/testvagrant/IdeaProjects/Java Code/javarevision/src/main/java/com/learning/anshul/mockInterview2/WithoutIDE.java
/Users/testvagrant/IdeaProjects/Java Code/javarevision/src/main/java/com/learning/coredspm/leetcode/strings/ReverseVowels.java
/Users/testvagrant/IdeaProjects/Java Code/javarevision/src/main/java/com/learning/coredspm/LongestNonRepSubSlidingWindow.java
/Users/testvagrant/IdeaProjects/Java Code/javarevision/src/main/java/com/learning/abstractClasses/AbstractChild.java
/Users/testvagrant/IdeaProjects/Java Code/javarevision/src/main/java/com/learning/functionalProgramming/ImplementingClassNotRequired.java
/Users/testvagrant/IdeaProjects/Java Code/javarevision/src/main/java/com/learning/initblackstaticblock/initstatic.java
/Users/testvagrant/IdeaProjects/Java Code/javarevision/src/main/java/test/java/com/learning/coredspm/leetcode/strings/SubsequenceTest.java
/Users/testvagrant/IdeaProjects/Java Code/javarevision/src/main/java/com/learning/enumerations/EnumInAnotherNonPublicClass.java
/Users/testvagrant/IdeaProjects/Java Code/javarevision/src/main/java/com/learning/javaInheritanceGarbageCollection/Main.java
/Users/testvagrant/IdeaProjects/Java Code/javarevision/src/main/java/com/learning/animalDog/Dog.java
/Users/testvagrant/IdeaProjects/Java Code/javarevision/src/main/java/com/learning/collections/Others.java
/Users/testvagrant/IdeaProjects/Java Code/javarevision/src/main/java/com/learning/datesAndTime/DateTimeLearning.java
/Users/testvagrant/IdeaProjects/Java Code/javarevision/src/main/java/com/learning/enumerations/CoffeeSize.java
/Users/testvagrant/IdeaProjects/Java Code/javarevision/src/main/java/com/learning/javaInheritanceGarbageCollection/I2.java
/Users/testvagrant/IdeaProjects/Java Code/javarevision/src/main/java/com/learning/codility/AccountBalanceCalculator.java
/Users/testvagrant/IdeaProjects/Java Code/javarevision/src/main/java/com/learning/chapter2/Singer.java
/Users/testvagrant/IdeaProjects/Java Code/javarevision/src/main/java/com/learning/coredspm/leetcode/strings/RomanToInt.java
/Users/testvagrant/IdeaProjects/Java Code/javarevision/src/main/java/com/learning/abstractClasses/AbstractParent.java
/Users/testvagrant/IdeaProjects/Java Code/javarevision/src/main/java/com/learning/enumerations/Coffee.java
/Users/testvagrant/IdeaProjects/Java Code/javarevision/src/main/java/com/learning/javaInheritanceGarbageCollection/IntrfaceLearnable.java
/Users/testvagrant/IdeaProjects/Java Code/javarevision/src/main/java/com/learning/anshul/Customer.java
/Users/testvagrant/IdeaProjects/Java Code/javarevision/src/main/java/com/learning/codility/Codility.java
/Users/testvagrant/IdeaProjects/Java Code/javarevision/src/main/java/com/learning/anshul/CarGarageProblem.java
